PRÁCTICA_1/PRACTICA_1_MODIFICACION/alu.vcd
$date
	Thu Oct 24 10:04:17 2019
$end
$version
	Icarus Verilog
$end
$timescale
	10ps
$end
$scope module alu_tb $end
$var wire 1 ! t_z $end
$var wire 1 " t_s $end
$var wire 1 # t_c $end
$var wire 4 $ t_R [3:0] $end
$var reg 4 % t_A [3:0] $end
$var reg 4 & t_B [3:0] $end
$var reg 1 ' t_L $end
$var reg 2 ( t_Op [1:0] $end
$var integer 32 ) errores [31:0] $end
$scope module mat $end
$var wire 4 * A [3:0] $end
$var wire 2 + ALUOp [1:0] $end
$var wire 4 , B [3:0] $end
$var wire 1 ' L $end
$var wire 1 - Op1_A $end
$var wire 1 . Op2_B $end
$var wire 1 / cin $end
$var wire 1 0 cpl $end
$var wire 1 ! zero $end
$var wire 1 " sign $end
$var wire 4 1 cpl_in [3:0] $end
$var wire 1 2 cout_2 $end
$var wire 1 3 cout_1 $end
$var wire 1 4 cout_0 $end
$var wire 1 # carry $end
$var wire 4 5 R [3:0] $end
$var wire 4 6 Op2 [3:0] $end
$var wire 4 7 Op1 [3:0] $end
$scope module cal_0 $end
$var wire 1 8 a $end
$var wire 1 9 b $end
$var wire 1 / c_in $end
$var wire 1 ' l $end
$var wire 2 : s [1:0] $end
$var wire 1 ; out $end
$var wire 1 < fa_salida $end
$var wire 1 = cl_salida $end
$var wire 1 4 c_out $end
$scope module cl1 $end
$var wire 1 8 a $end
$var wire 1 > and_salida $end
$var wire 1 9 b $end
$var wire 1 ? not_salida $end
$var wire 1 @ or_salida $end
$var wire 2 A s [1:0] $end
$var wire 1 B xor_salida $end
$var wire 1 = out $end
$scope module muxy $end
$var wire 1 > a $end
$var wire 1 @ b $end
$var wire 1 B c $end
$var wire 1 ? d $end
$var wire 2 C s [1:0] $end
$var reg 1 = out $end
$upscope $end
$upscope $end
$scope module fa1 $end
$var wire 1 8 a $end
$var wire 1 9 b $end
$var wire 1 / cin $end
$var wire 1 < sum $end
$var wire 1 4 cout $end
$upscope $end
$scope module mux11 $end
$var wire 1 < a $end
$var wire 1 = b $end
$var wire 1 ' s $end
$var wire 1 ; out $end
$upscope $end
$upscope $end
$scope module cal_1 $end
$var wire 1 D a $end
$var wire 1 E b $end
$var wire 1 4 c_in $end
$var wire 1 ' l $end
$var wire 2 F s [1:0] $end
$var wire 1 G out $end
$var wire 1 H fa_salida $end
$var wire 1 I cl_salida $end
$var wire 1 3 c_out $end
$scope module cl1 $end
$var wire 1 D a $end
$var wire 1 J and_salida $end
$var wire 1 E b $end
$var wire 1 K not_salida $end
$var wire 1 L or_salida $end
$var wire 2 M s [1:0] $end
$var wire 1 N xor_salida $end
$var wire 1 I out $end
$scope module muxy $end
$var wire 1 J a $end
$var wire 1 L b $end
$var wire 1 N c $end
$var wire 1 K d $end
$var wire 2 O s [1:0] $end
$var reg 1 I out $end
$upscope $end
$upscope $end
$scope module fa1 $end
$var wire 1 D a $end
$var wire 1 E b $end
$var wire 1 4 cin $end
$var wire 1 H sum $end
$var wire 1 3 cout $end
$upscope $end
$scope module mux11 $end
$var wire 1 H a $end
$var wire 1 I b $end
$var wire 1 ' s $end
$var wire 1 G out $end
$upscope $end
$upscope $end
$scope module cal_2 $end
$var wire 1 P a $end
$var wire 1 Q b $end
$var wire 1 3 c_in $end
$var wire 1 ' l $end
$var wire 2 R s [1:0] $end
$var wire 1 S out $end
$var wire 1 T fa_salida $end
$var wire 1 U cl_salida $end
$var wire 1 2 c_out $end
$scope module cl1 $end
$var wire 1 P a $end
$var wire 1 V and_salida $end
$var wire 1 Q b $end
$var wire 1 W not_salida $end
$var wire 1 X or_salida $end
$var wire 2 Y s [1:0] $end
$var wire 1 Z xor_salida $end
$var wire 1 U out $end
$scope module muxy $end
$var wire 1 V a $end
$var wire 1 X b $end
$var wire 1 Z c $end
$var wire 1 W d $end
$var wire 2 [ s [1:0] $end
$var reg 1 U out $end
$upscope $end
$upscope $end
$scope module fa1 $end
$var wire 1 P a $end
$var wire 1 Q b $end
$var wire 1 3 cin $end
$var wire 1 T sum $end
$var wire 1 2 cout $end
$upscope $end
$scope module mux11 $end
$var wire 1 T a $end
$var wire 1 U b $end
$var wire 1 ' s $end
$var wire 1 S out $end
$upscope $end
$upscope $end
$scope module cal_3 $end
$var wire 1 \ a $end
$var wire 1 ] b $end
$var wire 1 2 c_in $end
$var wire 1 ' l $end
$var wire 2 ^ s [1:0] $end
$var wire 1 _ out $end
$var wire 1 ` fa_salida $end
$var wire 1 a cl_salida $end
$var wire 1 # c_out $end
$scope module cl1 $end
$var wire 1 \ a $end
$var wire 1 b and_salida $end
$var wire 1 ] b $end
$var wire 1 c not_salida $end
$var wire 1 d or_salida $end
$var wire 2 e s [1:0] $end
$var wire 1 f xor_salida $end
$var wire 1 a out $end
$scope module muxy $end
$var wire 1 b a $end
$var wire 1 d b $end
$var wire 1 f c $end
$var wire 1 c d $end
$var wire 2 g s [1:0] $end
$var reg 1 a out $end
$upscope $end
$upscope $end
$scope module fa1 $end
$var wire 1 \ a $end
$var wire 1 ] b $end
$var wire 1 2 cin $end
$var wire 1 ` sum $end
$var wire 1 # cout $end
$upscope $end
$scope module mux11 $end
$var wire 1 ` a $end
$var wire 1 a b $end
$var wire 1 ' s $end
$var wire 1 _ out $end
$upscope $end
$upscope $end
$scope module compl_Op2 $end
$var wire 1 0 cpl $end
$var wire 4 h Sal [3:0] $end
$var wire 4 i Ent [3:0] $end
$upscope $end
$scope module mux_Op1 $end
$var wire 4 j a [3:0] $end
$var wire 4 k b [3:0] $end
$var wire 1 - s $end
$var wire 4 l out [3:0] $end
$upscope $end
$scope module mux_Op2 $end
$var wire 4 m a [3:0] $end
$var wire 4 n b [3:0] $end
$var wire 1 . s $end
$var wire 4 o out [3:0] $end
$upscope $end
$upscope $end
$scope task check $end
$var reg 1 p flag_carry $end
$var reg 1 q flag_sign $end
$var reg 1 r flag_zero $end
$var reg 5 s result [4:0] $end
$upscope $end
$upscope $end
$enddefinitions $end
#0
$dumpvars
bx s
xr
xq
xp
b0 o
b0 n
b0 m
b0 l
b0 k
b0 j
b0 i
b0 h
b0 g
0f
b0 e
0d
1c
0b
0a
0`
0_
b0 ^
0]
0\
b0 [
0Z
b0 Y
0X
1W
0V
0U
0T
0S
b0 R
0Q
0P
b0 O
0N
b0 M
0L
1K
0J
0I
0H
0G
b0 F
0E
0D
b0 C
0B
b0 A
0@
1?
0>
0=
0<
0;
b0 :
09
08
b0 7
b0 6
b0 5
04
03
02
b0 1
00
0/
1.
1-
b0 ,
b0 +
b0 *
b0 )
b0 (
0'
b0 &
b0 %
b0 $
0#
0"
1!
$end
#200
0!
b1 $
b1 5
1;
1B
1@
1<
19
b1 6
b1 h
b1 1
b1 i
b1 o
b1 &
b1 ,
b1 n
1r
0q
0p
b0 s
#400
1G
b10 $
b10 5
0;
1N
1L
1H
0B
0@
0<
1E
09
b10 6
b10 h
b10 1
b10 i
b10 o
b10 &
b10 ,
b10 n
0r
b1 s
#600
b11 $
b11 5
1;
1B
1@
1<
19
b11 6
b11 h
b11 1
b11 i
b11 o
b11 &
b11 ,
b11 n
b10 s
#800
1S
0G
b100 $
b100 5
0;
1Z
1X
1T
0N
0L
0H
0B
0@
0<
1Q
0E
09
b100 6
b100 h
b100 1
b100 i
b100 o
b100 &
b100 ,
b100 n
b11 s
#1000
b101 $
b101 5
1;
1B
1@
1<
19
b101 6
b101 h
b101 1
b101 i
b101 o
b101 &
b101 ,
b101 n
b100 s
#1200
1G
b110 $
b110 5
0;
1N
1L
1H
0B
0@
0<
1E
09
b110 6
b110 h
b110 1
b110 i
b110 o
b110 &
b110 ,
b110 n
b101 s
#1400
b111 $
b111 5
1;
1B
1@
1<
19
b111 6
b111 h
b111 1
b111 i
b111 o
b111 &
b111 ,
b111 n
b110 s
#1600
1"
1_
0S
0G
b1000 $
b1000 5
0;
1f
1d
1`
0Z
0X
0T
0N
0L
0H
0B
0@
0<
1]
0Q
0E
09
b1000 6
b1000 h
b1000 1
b1000 i
b1000 o
b1000 &
b1000 ,
b1000 n
b111 s
#1800
b1001 $
b1001 5
1;
1B
1@
1<
19
b1001 6
b1001 h
b1001 1
b1001 i
b1001 o
b1001 &
b1001 ,
b1001 n
1q
b1000 s
#2000
1G
b1010 $
b1010 5
0;
1N
1L
1H
0B
0@
0<
1E
09
b1010 6
b1010 h
b1010 1
b1010 i
b1010 o
b1010 &
b1010 ,
b1010 n
b1001 s
#2200
b1011 $
b1011 5
1;
1B
1@
1<
19
b1011 6
b1011 h
b1011 1
b1011 i
b1011 o
b1011 &
b1011 ,
b1011 n
b1010 s
#2400
1S
0G
b1100 $
b1100 5
0;
1Z
1X
1T
0N
0L
0H
0B
0@
0<
1Q
0E
09
b1100 6
b1100 h
b1100 1
b1100 i
b1100 o
b1100 &
b1100 ,
b1100 n
b1011 s
#2600
b1101 $
b1101 5
1;
1B
1@
1<
19
b1101 6
b1101 h
b1101 1
b1101 i
b1101 o
b1101 &
b1101 ,
b1101 n
b1100 s
#2800
1G
b1110 $
b1110 5
0;
1N
1L
1H
0B
0@
0<
1E
09
b1110 6
b1110 h
b1110 1
b1110 i
b1110 o
b1110 &
b1110 ,
b1110 n
b1101 s
#3000
b1111 $
b1111 5
1;
1B
1@
1<
19
b1111 6
b1111 h
b1111 1
b1111 i
b1111 o
b1111 &
b1111 ,
b1111 n
b1110 s
#3200
0"
0_
0S
b1 $
b1 5
0G
0f
0d
0`
0Z
0X
0T
0N
0L
0H
0?
0]
0Q
0E
09
18
b0 6
b0 h
b1 7
b1 l
b0 1
b0 i
b0 o
b1 %
b1 *
b1 k
b1 m
b0 &
b0 ,
b0 n
b1111 s
#3400
1G
1=
b10 $
b10 5
0;
1H
1>
0B
0<
14
19
b1 6
b1 h
b1 1
b1 i
b1 o
b1 &
b1 ,
b1 n
0q
b1 s
#3600
0=
b11 $
b11 5
1;
1N
1L
0>
1B
1<
04
1E
09
b10 6
b10 h
b10 1
b10 i
b10 o
b10 &
b10 ,
b10 n
b10 s
#3800
1S
0G
1T
1=
b100 $
b100 5
0;
0H
13
1>
0B
0<
14
19
b11 6
b11 h
b11 1
b11 i
b11 o
b11 &
b11 ,
b11 n
b11 s
#4000
0=
b101 $
b101 5
1;
1Z
1X
0N
0L
03
0>
1B
1<
04
1Q
0E
09
b100 6
b100 h
b100 1
b100 i
b100 o
b100 &
b100 ,
b100 n
b100 s
#4200
1G
1=
b110 $
b110 5
0;
1H
1>
0B
0<
14
19
b101 6
b101 h
b101 1
b101 i
b101 o
b101 &
b101 ,
b101 n
b101 s
#4400
0=
b111 $
b111 5
1;
1N
1L
0>
1B
1<
04
1E
09
b110 6
b110 h
b110 1
b110 i
b110 o
b110 &
b110 ,
b110 n
b110 s
#4600
1"
1_
0S
1`
0G
0T
12
1=
b1000 $
b1000 5
0;
0H
13
1>
0B
0<
14
19
b111 6
b111 h
b111 1
b111 i
b111 o
b111 &
b111 ,
b111 n
b111 s
#4800
0=
b1001 $
b1001 5
1;
1f
1d
0Z
0X
02
0N
0L
03
0>
1B
1<
04
1]
0Q
0E
09
b1000 6
b1000 h
b1000 1
b1000 i
b1000 o
b1000 &
b1000 ,
b1000 n
1q
b1000 s
#5000
1G
1=
b1010 $
b1010 5
0;
1H
1>
0B
0<
14
19
b1001 6
b1001 h
b1001 1
b1001 i
b1001 o
b1001 &
b1001 ,
b1001 n
b1001 s
#5200
0=
b1011 $
b1011 5
1;
1N
1L
0>
1B
1<
04
1E
09
b1010 6
b1010 h
b1010 1
b1010 i
b1010 o
b1010 &
b1010 ,
b1010 n
b1010 s
#5400
1S
0G
1T
1=
b1100 $
b1100 5
0;
0H
13
1>
0B
0<
14
19
b1011 6
b1011 h
b1011 1
b1011 i
b1011 o
b1011 &
b1011 ,
b1011 n
b1011 s
#5600
0=
b1101 $
b1101 5
1;
1Z
1X
0N
0L
03
0>
1B
1<
04
1Q
0E
09
b1100 6
b1100 h
b1100 1
b1100 i
b1100 o
b1100 &
b1100 ,
b1100 n
b1100 s
#5800
1G
1=
b1110 $
b1110 5
0;
1H
1>
0B
0<
14
19
b1101 6
b1101 h
b1101 1
b1101 i
b1101 o
b1101 &
b1101 ,
b1101 n
b1101 s
#6000
0=
b1111 $
b1111 5
1;
1N
1L
0>
1B
1<
04
1E
09
b1110 6
b1110 h
b1110 1
b1110 i
b1110 o
b1110 &
b1110 ,
b1110 n
b1110 s
#6200
1!
0"
0_
0S
0`
1#
0G
0T
12
1=
b0 $
b0 5
0;
0H
13
1>
0B
0<
14
19
b1111 6
b1111 h
b1111 1
b1111 i
b1111 o
b1111 &
b1111 ,
b1111 n
b1111 s
#6400
0!
0S
b10 $
b10 5
1G
0=
03
0f
0d
0#
0Z
0X
0T
02
0K
1H
0>
1?
0@
04
0]
0Q
0E
09
1D
08
b0 6
b0 h
b10 7
b10 l
b0 1
b0 i
b0 o
b10 %
b10 *
b10 k
b10 m
b0 &
b0 ,
b0 n
1r
0q
1p
b10000 s
#6600
b11 $
b11 5
1;
1B
1@
1<
19
b1 6
b1 h
b1 1
b1 i
b1 o
b1 &
b1 ,
b1 n
0r
0p
b10 s
#6800
1S
1I
0G
1T
b100 $
b100 5
0;
1J
0N
0H
13
0B
0@
0<
1E
09
b10 6
b10 h
b10 1
b10 i
b10 o
b10 &
b10 ,
b10 n
b11 s
#7000
b101 $
b101 5
1;
1B
1@
1<
19
b11 6
b11 h
b11 1
b11 i
b11 o
b11 &
b11 ,
b11 n
b100 s
#7200
0I
1G
b110 $
b110 5
0;
1Z
1X
0J
1N
1H
03
0B
0@
0<
1Q
0E
09
b100 6
b100 h
b100 1
b100 i
b100 o
b100 &
b100 ,
b100 n
b101 s
#7400
b111 $
b111 5
1;
1B
1@
1<
19
b101 6
b101 h
b101 1
b101 i
b101 o
b101 &
b101 ,
b101 n
b110 s
#7600
1"
1_
0S
1`
1I
0G
0T
12
b1000 $
b1000 5
0;
1J
0N
0H
13
0B
0@
0<
1E
09
b110 6
b110 h
b110 1
b110 i
b110 o
b110 &
b110 ,
b110 n
b111 s
#7800
b1001 $
b1001 5
1;
1B
1@
1<
19
b111 6
b111 h
b111 1
b111 i
b111 o
b111 &
b111 ,
b111 n
1q
b1000 s
#8000
0I
1G
b1010 $
b1010 5
0;
1f
1d
0Z
0X
02
0J
1N
1H
03
0B
0@
0<
1]
0Q
0E
09
b1000 6
b1000 h
b1000 1
b1000 i
b1000 o
b1000 &
b1000 ,
b1000 n
b1001 s
#8200
b1011 $
b1011 5
1;
1B
1@
1<
19
b1001 6
b1001 h
b1001 1
b1001 i
b1001 o
b1001 &
b1001 ,
b1001 n
b1010 s
#8400
1S
1I
0G
1T
b1100 $
b1100 5
0;
1J
0N
0H
13
0B
0@
0<
1E
09
b1010 6
b1010 h
b1010 1
b1010 i
b1010 o
b1010 &
b1010 ,
b1010 n
b1011 s
#8600
b1101 $
b1101 5
1;
1B
1@
1<
19
b1011 6
b1011 h
b1011 1
b1011 i
b1011 o
b1011 &
b1011 ,
b1011 n
b1100 s
#8800
0I
1G
b1110 $
b1110 5
0;
1Z
1X
0J
1N
1H
03
0B
0@
0<
1Q
0E
09
b1100 6
b1100 h
b1100 1
b1100 i
b1100 o
b1100 &
b1100 ,
b1100 n
b1101 s
#9000
b1111 $
b1111 5
1;
1B
1@
1<
19
b1101 6
b1101 h
b1101 1
b1101 i
b1101 o
b1101 &
b1101 ,
b1101 n
b1110 s
#9200
1!
0"
0_
0S
0`
1#
1I
0G
0T
12
b0 $
b0 5
0;
1J
0N
0H
13
0B
0@
0<
1E
09
b1110 6
b1110 h
b1110 1
b1110 i
b1110 o
b1110 &
b1110 ,
b1110 n
b1111 s
#9400
0!
b1 $
b1 5
1;
1B
1@
1<
19
b1111 6
b1111 h
b1111 1
b1111 i
b1111 o
b1111 &
b1111 ,
b1111 n
1r
0q
1p
b10000 s
#9600
0I
b11 $
b11 5
1G
0f
0d
0#
0Z
0X
02
0J
1N
1H
03
0?
0]
0Q
0E
09
18
b0 6
b0 h
b11 7
b11 l
b0 1
b0 i
b0 o
b11 %
b11 *
b11 k
b11 m
b0 &
b0 ,
b0 n
0r
b10001 s
#9800
1S
0G
1T
1=
b100 $
b100 5
0;
0H
13
1>
0B
0<
14
19
b1 6
b1 h
b1 1
b1 i
b1 o
b1 &
b1 ,
b1 n
0p
b11 s
#10000
1I
0=
b101 $
b101 5
1;
1J
0N
0>
1B
1<
04
1E
09
b10 6
b10 h
b10 1
b10 i
b10 o
b10 &
b10 ,
b10 n
b100 s
#10200
1G
1=
b110 $
b110 5
0;
1H
1>
0B
0<
14
19
b11 6
b11 h
b11 1
b11 i
b11 o
b11 &
b11 ,
b11 n
b101 s
#10400
0"
0_
1S
0`
0I
0=
b111 $
b111 5
1;
03
1Z
1X
1T
02
0J
1N
0>
1B
1<
04
1Q
0E
09
b100 6
b100 h
b100 1
b100 i
b100 o
b100 &
b100 ,
b100 n
b110 s
#10600
1"
1_
0S
1`
0G
0T
12
1=
b1000 $
b1000 5
0;
0H
13
1>
0B
0<
14
19
b101 6
b101 h
b101 1
b101 i
b101 o
b101 &
b101 ,
b101 n
b111 s
#10800
1I
0=
b1001 $
b1001 5
1;
1J
0N
0>
1B
1<
04
1E
09
b110 6
b110 h
b110 1
b110 i
b110 o
b110 &
b110 ,
b110 n
1q
b1000 s
#11000
1G
1=
b1010 $
b1010 5
0;
1H
1>
0B
0<
14
19
b111 6
b111 h
b111 1
b111 i
b111 o
b111 &
b111 ,
b111 n
b1001 s
#11200
0S
0I
0=
b1011 $
b1011 5
1;
03
1f
1d
0Z
0X
0T
02
0J
1N
0>
1B
1<
04
1]
0Q
0E
09
b1000 6
b1000 h
b1000 1
b1000 i
b1000 o
b1000 &
b1000 ,
b1000 n
b1010 s
#11400
1S
0G
1T
1=
b1100 $
b1100 5
0;
0H
13
1>
0B
0<
14
19
b1001 6
b1001 h
b1001 1
b1001 i
b1001 o
b1001 &
b1001 ,
b1001 n
b1011 s
#11600
1I
0=
b1101 $
b1101 5
1;
1J
0N
0>
1B
1<
04
1E
09
b1010 6
b1010 h
b1010 1
b1010 i
b1010 o
b1010 &
b1010 ,
b1010 n
b1100 s
#11800
1G
1=
b1110 $
b1110 5
0;
1H
1>
0B
0<
14
19
b1011 6
b1011 h
b1011 1
b1011 i
b1011 o
b1011 &
b1011 ,
b1011 n
b1101 s
#12000
1"
1_
1S
1`
0#
0I
0=
b1111 $
b1111 5
1;
03
1Z
1X
1T
02
0J
1N
0>
1B
1<
04
1Q
0E
09
b1100 6
b1100 h
b1100 1
b1100 i
b1100 o
b1100 &
b1100 ,
b1100 n
b1110 s
#12200
1!
0"
0_
0S
0`
1#
0G
0T
12
1=
b0 $
b0 5
0;
0H
13
1>
0B
0<
14
19
b1101 6
b1101 h
b1101 1
b1101 i
b1101 o
b1101 &
b1101 ,
b1101 n
b1111 s
#12400
0!
1I
0=
b1 $
b1 5
1;
1J
0N
0>
1B
1<
04
1E
09
b1110 6
b1110 h
b1110 1
b1110 i
b1110 o
b1110 &
b1110 ,
b1110 n
1r
0q
1p
b10000 s
#12600
1G
1=
b10 $
b10 5
0;
1H
1>
0B
0<
14
19
b1111 6
b1111 h
b1111 1
b1111 i
b1111 o
b1111 &
b1111 ,
b1111 n
0r
b10001 s
#12800
0"
1S
0_
1T
02
0I
b100 $
b100 5
0G
0=
0f
0d
0`
0#
03
0W
0J
1K
0L
0H
0>
1?
0@
04
0]
0Q
0E
09
1P
0D
08
b0 6
b0 h
b100 7
b100 l
b0 1
b0 i
b0 o
b100 %
b100 *
b100 k
b100 m
b0 &
b0 ,
b0 n
b10010 s
#13000
b101 $
b101 5
1;
1B
1@
1<
19
b1 6
b1 h
b1 1
b1 i
b1 o
b1 &
b1 ,
b1 n
0p
b100 s
#13200
1G
b110 $
b110 5
0;
1N
1L
1H
0B
0@
0<
1E
09
b10 6
b10 h
b10 1
b10 i
b10 o
b10 &
b10 ,
b10 n
b101 s
#13400
b111 $
b111 5
1;
1B
1@
1<
19
b11 6
b11 h
b11 1
b11 i
b11 o
b11 &
b11 ,
b11 n
b110 s
#13600
1"
1_
1U
0S
1`
0G
b1000 $
b1000 5
0;
1V
0Z
0T
12
0N
0L
0H
0B
0@
0<
1Q
0E
09
b100 6
b100 h
b100 1
b100 i
b100 o
b100 &
b100 ,
b100 n
b111 s
#13800
b1001 $
b1001 5
1;
1B
1@
1<
19
b101 6
b101 h
b101 1
b101 i
b101 o
b101 &
b101 ,
b101 n
1q
b1000 s
#14000
1G
b1010 $
b1010 5
0;
1N
1L
1H
0B
0@
0<
1E
09
b110 6
b110 h
b110 1
b110 i
b110 o
b110 &
b110 ,
b110 n
b1001 s
#14200
b1011 $
b1011 5
1;
1B
1@
1<
19
b111 6
b111 h
b111 1
b111 i
b111 o
b111 &
b111 ,
b111 n
b1010 s
#14400
0U
1S
0G
b1100 $
b1100 5
0;
1f
1d
0V
1Z
1T
02
0N
0L
0H
0B
0@
0<
1]
0Q
0E
09
b1000 6
b1000 h
b1000 1
b1000 i
b1000 o
b1000 &
b1000 ,
b1000 n
b1011 s
#14600
b1101 $
b1101 5
1;
1B
1@
1<
19
b1001 6
b1001 h
b1001 1
b1001 i
b1001 o
b1001 &
b1001 ,
b1001 n
b1100 s
#14800
1G
b1110 $
b1110 5
0;
1N
1L
1H
0B
0@
0<
1E
09
b1010 6
b1010 h
b1010 1
b1010 i
b1010 o
b1010 &
b1010 ,
b1010 n
b1101 s
#15000
b1111 $
b1111 5
1;
1B
1@
1<
19
b1011 6
b1011 h
b1011 1
b1011 i
b1011 o
b1011 &
b1011 ,
b1011 n
b1110 s
#15200
1!
0"
0_
1U
0S
0`
1#
0G
b0 $
b0 5
0;
1V
0Z
0T
12
0N
0L
0H
0B
0@
0<
1Q
0E
09
b1100 6
b1100 h
b1100 1
b1100 i
b1100 o
b1100 &
b1100 ,
b1100 n
b1111 s
#15400
0!
b1 $
b1 5
1;
1B
1@
1<
19
b1101 6
b1101 h
b1101 1
b1101 i
b1101 o
b1101 &
b1101 ,
b1101 n
1r
0q
1p
b10000 s
#15600
1G
b10 $
b10 5
0;
1N
1L
1H
0B
0@
0<
1E
09
b1110 6
b1110 h
b1110 1
b1110 i
b1110 o
b1110 &
b1110 ,
b1110 n
0r
b10001 s
#15800
b11 $
b11 5
1;
1B
1@
1<
19
b1111 6
b1111 h
b1111 1
b1111 i
b1111 o
b1111 &
b1111 ,
b1111 n
b10010 s
#16000
0U
1S
b101 $
b101 5
0G
0f
0d
0#
0V
1Z
1T
02
0N
0L
0H
0?
0]
0Q
0E
09
18
b0 6
b0 h
b101 7
b101 l
b0 1
b0 i
b0 o
b101 %
b101 *
b101 k
b101 m
b0 &
b0 ,
b0 n
b10011 s
#16200
1G
1=
b110 $
b110 5
0;
1H
1>
0B
0<
14
19
b1 6
b1 h
b1 1
b1 i
b1 o
b1 &
b1 ,
b1 n
0p
b101 s
#16400
0=
b111 $
b111 5
1;
1N
1L
0>
1B
1<
04
1E
09
b10 6
b10 h
b10 1
b10 i
b10 o
b10 &
b10 ,
b10 n
b110 s
#16600
1"
1_
0S
1`
0G
0T
12
1=
b1000 $
b1000 5
0;
0H
13
1>
0B
0<
14
19
b11 6
b11 h
b11 1
b11 i
b11 o
b11 &
b11 ,
b11 n
b111 s
#16800
1U
0=
b1001 $
b1001 5
1;
1V
0Z
0N
0L
03
0>
1B
1<
04
1Q
0E
09
b100 6
b100 h
b100 1
b100 i
b100 o
b100 &
b100 ,
b100 n
1q
b1000 s
#17000
1G
1=
b1010 $
b1010 5
0;
1H
1>
0B
0<
14
19
b101 6
b101 h
b101 1
b101 i
b101 o
b101 &
b101 ,
b101 n
b1001 s
#17200
0=
b1011 $
b1011 5
1;
1N
1L
0>
1B
1<
04
1E
09
b110 6
b110 h
b110 1
b110 i
b110 o
b110 &
b110 ,
b110 n
b1010 s
#17400
1S
0G
1T
1=
b1100 $
b1100 5
0;
0H
13
1>
0B
0<
14
19
b111 6
b111 h
b111 1
b111 i
b111 o
b111 &
b111 ,
b111 n
b1011 s
#17600
1"
1_
0U
02
0=
b1101 $
b1101 5
1;
1f
1d
1`
0#
0V
1Z
0N
0L
03
0>
1B
1<
04
1]
0Q
0E
09
b1000 6
b1000 h
b1000 1
b1000 i
b1000 o
b1000 &
b1000 ,
b1000 n
b1100 s
#17800
1G
1=
b1110 $
b1110 5
0;
1H
1>
0B
0<
14
19
b1001 6
b1001 h
b1001 1
b1001 i
b1001 o
b1001 &
b1001 ,
b1001 n
b1101 s
#18000
0=
b1111 $
b1111 5
1;
1N
1L
0>
1B
1<
04
1E
09
b1010 6
b1010 h
b1010 1
b1010 i
b1010 o
b1010 &
b1010 ,
b1010 n
b1110 s
#18200
1!
0"
0_
0S
0`
1#
0G
0T
12
1=
b0 $
b0 5
0;
0H
13
1>
0B
0<
14
19
b1011 6
b1011 h
b1011 1
b1011 i
b1011 o
b1011 &
b1011 ,
b1011 n
b1111 s
#18400
0!
1U
0=
b1 $
b1 5
1;
1V
0Z
0N
0L
03
0>
1B
1<
04
1Q
0E
09
b1100 6
b1100 h
b1100 1
b1100 i
b1100 o
b1100 &
b1100 ,
b1100 n
1r
0q
1p
b10000 s
#18600
1G
1=
b10 $
b10 5
0;
1H
1>
0B
0<
14
19
b1101 6
b1101 h
b1101 1
b1101 i
b1101 o
b1101 &
b1101 ,
b1101 n
0r
b10001 s
#18800
0=
b11 $
b11 5
1;
1N
1L
0>
1B
1<
04
1E
09
b1110 6
b1110 h
b1110 1
b1110 i
b1110 o
b1110 &
b1110 ,
b1110 n
b10010 s
#19000
1S
0G
1T
1=
b100 $
b100 5
0;
0H
13
1>
0B
0<
14
19
b1111 6
b1111 h
b1111 1
b1111 i
b1111 o
b1111 &
b1111 ,
b1111 n
b10011 s
#19200
0"
02
0_
0U
1S
b110 $
b110 5
1G
0=
03
0f
0d
0`
0#
0V
1Z
1T
0K
1H
0>
1?
0@
04
0]
0Q
0E
09
1D
08
b0 6
b0 h
b110 7
b110 l
b0 1
b0 i
b0 o
b110 %
b110 *
b110 k
b110 m
b0 &
b0 ,
b0 n
b10100 s
#19400
b111 $
b111 5
1;
1B
1@
1<
19
b1 6
b1 h
b1 1
b1 i
b1 o
b1 &
b1 ,
b1 n
0p
b110 s
#19600
1"
1_
0S
1`
1I
0G
0T
12
b1000 $
b1000 5
0;
1J
0N
0H
13
0B
0@
0<
1E
09
b10 6
b10 h
b10 1
b10 i
b10 o
b10 &
b10 ,
b10 n
b111 s
#19800
b1001 $
b1001 5
1;
1B
1@
1<
19
b11 6
b11 h
b11 1
b11 i
b11 o
b11 &
b11 ,
b11 n
1q
b1000 s
#20000
1U
0I
1G
b1010 $
b1010 5
0;
1V
0Z
0J
1N
1H
03
0B
0@
0<
1Q
0E
09
b100 6
b100 h
b100 1
b100 i
b100 o
b100 &
b100 ,
b100 n
b1001 s
#20200
b1011 $
b1011 5
1;
1B
1@
1<
19
b101 6
b101 h
b101 1
b101 i
b101 o
b101 &
b101 ,
b101 n
b1010 s
#20400
1S
1I
0G
1T
b1100 $
b1100 5
0;
1J
0N
0H
13
0B
0@
0<
1E
09
b110 6
b110 h
b110 1
b110 i
b110 o
b110 &
b110 ,
b110 n
b1011 s
#20600
b1101 $
b1101 5
1;
1B
1@
1<
19
b111 6
b111 h
b111 1
b111 i
b111 o
b111 &
b111 ,
b111 n
b1100 s
#20800
1"
1_
0U
0I
1G
02
b1110 $
b1110 5
0;
1f
1d
1`
0#
0V
1Z
0J
1N
1H
03
0B
0@
0<
1]
0Q
0E
09
b1000 6
b1000 h
b1000 1
b1000 i
b1000 o
b1000 &
b1000 ,
b1000 n
b1101 s
#21000
b1111 $
b1111 5
1;
1B
1@
1<
19
b1001 6
b1001 h
b1001 1
b1001 i
b1001 o
b1001 &
b1001 ,
b1001 n
b1110 s
#21200
1!
0"
0_
0S
0`
1#
1I
0G
0T
12
b0 $
b0 5
0;
1J
0N
0H
13
0B
0@
0<
1E
09
b1010 6
b1010 h
b1010 1
b1010 i
b1010 o
b1010 &
b1010 ,
b1010 n
b1111 s
#21400
0!
b1 $
b1 5
1;
1B
1@
1<
19
b1011 6
b1011 h
b1011 1
b1011 i
b1011 o
b1011 &
b1011 ,
b1011 n
1r
0q
1p
b10000 s
#21600
1U
0I
1G
b10 $
b10 5
0;
1V
0Z
0J
1N
1H
03
0B
0@
0<
1Q
0E
09
b1100 6
b1100 h
b1100 1
b1100 i
b1100 o
b1100 &
b1100 ,
b1100 n
0r
b10001 s
#21800
b11 $
b11 5
1;
1B
1@
1<
19
b1101 6
b1101 h
b1101 1
b1101 i
b1101 o
b1101 &
b1101 ,
b1101 n
b10010 s
#22000
1S
1I
0G
1T
b100 $
b100 5
0;
1J
0N
0H
13
0B
0@
0<
1E
09
b1110 6
b1110 h
b1110 1
b1110 i
b1110 o
b1110 &
b1110 ,
b1110 n
b10011 s
#22200
b101 $
b101 5
1;
1B
1@
1<
19
b1111 6
b1111 h
b1111 1
b1111 i
b1111 o
b1111 &
b1111 ,
b1111 n
b10100 s
#22400
0"
0_
0U
0I
b111 $
b111 5
1G
02
0f
0d
0`
0#
0V
1Z
0J
1N
1H
03
0?
0]
0Q
0E
09
18
b0 6
b0 h
b111 7
b111 l
b0 1
b0 i
b0 o
b111 %
b111 *
b111 k
b111 m
b0 &
b0 ,
b0 n
b10101 s
#22600
1"
1_
0S
1`
0G
0T
12
1=
b1000 $
b1000 5
0;
0H
13
1>
0B
0<
14
19
b1 6
b1 h
b1 1
b1 i
b1 o
b1 &
b1 ,
b1 n
0p
b111 s
